{
    "executionRoleArn": "arn:aws:iam::639758934490:role/Sherif-ECSTaskExecutionRole",
    "containerDefinitions": [
        {
            "name": "cet-016-sample-website",
            "image": "<IMAGE1_NAME>",
            "essential": true,
            "portMappings": [
                {
                    "hostPort": 80,
                    "protocol": "tcp",
                    "containerPort": 80
                }
            ]
        }
    ],
    "requiresCompatibilities": [
        "FARGATE"
    ],
    "networkMode": "awsvpc",
    "cpu": "256",
    "memory": "512",
    "family": "cet-016-httpd"
}